00 00 00 00
11 11 11 11
22 22 22 22
33 33 33 33
44 44 44 44
55 55 55 55
66 66 66 66
77 77 77 77
88 88 88 88
99 99 99 99
0A 0A 0A 0A
0B 0B 0B 0B
0C 0C 0C 0C
0D 0D 0D 0D
0E 0E 0E 0E
0F 0F 0F 0F
00 00 00 00
00 00 00 00
00 00 00 00
00 00 00 00
00 00 00 00
00 00 00 00
00 00 00 00
00 00 00 00
00 00 00 00
00 00 00 00
00 00 00 00
00 00 00 00